{
      "type": "pg",
      "host": "localhost",
      "port": 30001,
      "username": "testuser",
      "password": "password",
      "database": "userdb",
      "PoolMin": 300,
      "PoolMax": 600
}
